<?xml version="1.0" encoding="UTF-8" standalone="no"?>
<!-- Generator: Adobe Illustrator 24.2.3, SVG Export Plug-In . SVG Version: 6.00 Build 0)  -->

<svg
   version="1.1"
   id="Sciveyor_Logo"
   x="0px"
   y="0px"
   viewBox="0 0 113.05 113.24"
   xml:space="preserve"
   width="113.05"
   height="113.24"
   xmlns="http://www.w3.org/2000/svg"
   xmlns:svg="http://www.w3.org/2000/svg"><defs
   id="defs457" />
<style
   type="text/css"
   id="style2">
	.st0{fill:url(#SVGID_1_);}
	.st1{fill:url(#SVGID_2_);}
	.st2{fill:#EFF4F1;}
	.st3{fill:#E75F29;}
	.st4{fill:#2C3A3A;}
	.st5{font-family:'NeuropolXRg-Bold';}
	.st6{font-size:33.465px;}
	.st7{fill:url(#SVGID_3_);}
	.st8{font-size:33.7668px;}
	.st9{fill:url(#SVGID_4_);}
	.st10{fill:none;}
	.st11{font-family:'MyriadPro-Regular';}
	.st12{font-size:12px;}
</style>
<linearGradient
   id="SVGID_1_"
   gradientUnits="userSpaceOnUse"
   x1="163.30969"
   y1="155.37219"
   x2="73.881699"
   y2="65.944199">
	<stop
   offset="0"
   style="stop-color:#2C3A3A"
   id="stop4" />
	<stop
   offset="1"
   style="stop-color:#455555"
   id="stop6" />
</linearGradient>

<linearGradient
   id="SVGID_2_"
   gradientUnits="userSpaceOnUse"
   x1="164.04131"
   y1="308.93051"
   x2="74.613297"
   y2="219.5025"
   gradientTransform="translate(-62.8,-207.6)">
	<stop
   offset="0"
   style="stop-color:#AF3B25"
   id="stop11" />
	<stop
   offset="1"
   style="stop-color:#E75F29"
   id="stop13" />
</linearGradient>
<path
   class="st1"
   d="M 72.56,113.24 H 40.49 C 18.13,113.24 0,95.11 0,72.75 V 40.49 C 0,18.13 18.13,0 40.49,0 h 32.07 c 22.36,0 40.49,18.13 40.49,40.49 v 32.26 c 0,22.36 -18.12,40.49 -40.49,40.49 z"
   id="path16"
   style="fill:url(#SVGID_2_)" />




<linearGradient
   id="SVGID_3_"
   gradientUnits="userSpaceOnUse"
   x1="327.52231"
   y1="107.8321"
   x2="285.5173"
   y2="65.827103">
	<stop
   offset="0"
   style="stop-color:#2C3A3A"
   id="stop84" />
	<stop
   offset="1"
   style="stop-color:#455555"
   id="stop86" />
</linearGradient>













<g
   id="g195"
   transform="translate(-62.8,-207.6)">
	<path
   class="st4"
   d="m 94.79,265.66 1.26,2.48 c -0.12,-0.21 -0.24,-0.41 -0.35,-0.62 -0.17,-0.32 -0.34,-0.63 -0.49,-0.96 -0.15,-0.3 -0.29,-0.6 -0.42,-0.9 z"
   id="path191" />
	<path
   class="st4"
   d="m 92.62,252.15 -0.05,0.91 -0.07,1.33 c 0.01,-0.22 0.01,-0.44 0.02,-0.67 0.01,-0.22 0.02,-0.44 0.03,-0.67 0.01,-0.26 0.03,-0.52 0.06,-0.78 0,-0.04 0,-0.07 0.01,-0.11 -0.01,-0.01 -0.01,-0.01 0,-0.01 z"
   id="path193" />
</g>
<g
   id="g201"
   transform="translate(-62.8,-207.6)">
	<path
   class="st4"
   d="m 92.61,252.16 c -0.01,0.04 -0.01,0.07 -0.01,0.11 0,-0.04 0.01,-0.08 0.01,-0.12 v -0.05 c 0.01,0.01 0,0.04 0,0.06 z"
   id="path197" />
	<path
   class="st4"
   d="m 119.33,222.53 c -17.82,0 -32.25,14.44 -32.25,32.25 0,6.98 2.22,13.43 5.98,18.71 0.24,0.33 0.47,0.65 0.72,0.98 l 0.94,1.28 0.96,1.29 9.88,13.42 11.82,16.05 c 0.98,1.33 2.96,1.33 3.93,0 l 11.8,-16.04 6.65,-9.04 0.91,-1.24 4.21,-5.72 c 0.24,-0.32 0.49,-0.65 0.72,-0.98 3.76,-5.28 5.98,-11.74 5.98,-18.71 0,-17.82 -14.44,-32.25 -32.25,-32.25 z m 26.31,37.52 c -0.06,0.28 -0.11,0.55 -0.18,0.83 -0.06,0.24 -0.12,0.49 -0.18,0.73 -0.01,0.03 -0.01,0.06 -0.02,0.08 -0.06,0.24 -0.13,0.49 -0.21,0.72 -0.06,0.18 -0.11,0.37 -0.17,0.55 -0.03,0.11 -0.07,0.22 -0.11,0.34 -0.05,0.15 -0.1,0.3 -0.16,0.45 -0.1,0.27 -0.2,0.55 -0.3,0.82 -0.12,0.31 -0.25,0.63 -0.39,0.93 -0.02,0.04 -0.04,0.09 -0.06,0.14 -0.13,0.31 -0.27,0.62 -0.42,0.91 -0.16,0.32 -0.32,0.64 -0.49,0.96 -0.12,0.23 -0.26,0.46 -0.39,0.68 -0.01,0.02 -0.02,0.04 -0.04,0.07 -0.07,0.14 -0.16,0.27 -0.24,0.4 -0.14,0.24 -0.28,0.47 -0.43,0.69 -0.39,0.6 -0.8,1.18 -1.23,1.75 l -4.79,6.51 -0.93,1.26 -4.58,6.22 v 0.01 l -1.02,1.39 -1.38,1.87 -8.59,11.67 -11,-14.93 -4.02,-5.46 -0.95,-1.29 -2.11,-2.86 -1,-1.35 -2.23,-3.04 c -0.44,-0.57 -0.85,-1.15 -1.24,-1.75 -0.14,-0.22 -0.28,-0.44 -0.42,-0.67 -0.1,-0.17 -0.2,-0.34 -0.29,-0.5 -0.01,-0.02 -0.02,-0.04 -0.03,-0.06 -0.12,-0.21 -0.24,-0.41 -0.35,-0.62 -0.17,-0.32 -0.34,-0.63 -0.49,-0.96 -0.14,-0.3 -0.29,-0.6 -0.42,-0.9 0,-0.01 -0.01,-0.01 -0.01,-0.01 -0.02,-0.04 -0.04,-0.09 -0.06,-0.14 -0.13,-0.3 -0.26,-0.62 -0.39,-0.93 -0.67,-1.71 -1.17,-3.5 -1.48,-5.35 -0.24,-1.44 -0.37,-2.93 -0.37,-4.44 v -0.29 c 0,-0.04 0,-0.07 0.01,-0.11 0.01,-0.22 0.01,-0.44 0.02,-0.67 0.01,-0.22 0.02,-0.44 0.03,-0.67 0.01,-0.26 0.03,-0.52 0.06,-0.78 0,-0.04 0,-0.07 0.01,-0.11 0,-0.02 0.01,-0.04 0.01,-0.06 0.01,-0.15 0.03,-0.29 0.05,-0.44 0.01,-0.04 0.01,-0.08 0.02,-0.12 0.02,-0.22 0.05,-0.45 0.09,-0.67 0.03,-0.26 0.07,-0.51 0.12,-0.76 0,-0.01 0.01,-0.02 0.01,-0.03 v -0.01 c 0.27,-1.5 0.66,-2.96 1.16,-4.37 0.47,-1.29 1.02,-2.53 1.67,-3.72 0.17,-0.32 0.35,-0.64 0.55,-0.95 0.03,-0.06 0.06,-0.11 0.1,-0.17 0,0 0,0 0,-0.01 0.04,-0.07 0.09,-0.14 0.14,-0.21 0.17,-0.3 0.37,-0.59 0.56,-0.88 v -0.01 c 0.72,-1.07 1.52,-2.08 2.39,-3.04 0.29,-0.32 0.58,-0.63 0.89,-0.93 4.86,-4.86 11.57,-7.86 18.97,-7.86 7.41,0 14.12,3.01 18.97,7.86 0.46,0.45 0.9,0.93 1.32,1.41 0.14,0.16 0.28,0.33 0.42,0.49 0.27,0.34 0.54,0.67 0.8,1.01 0.26,0.35 0.5,0.7 0.75,1.06 0.24,0.35 0.47,0.72 0.7,1.08 0.22,0.37 0.44,0.75 0.65,1.13 0.1,0.19 0.21,0.39 0.3,0.58 0.49,0.96 0.93,1.96 1.31,2.99 0.07,0.21 0.14,0.41 0.22,0.62 0.14,0.42 0.27,0.83 0.39,1.26 0.06,0.22 0.12,0.44 0.17,0.65 0.04,0.17 0.09,0.34 0.12,0.51 0.03,0.11 0.06,0.22 0.07,0.32 0.04,0.16 0.07,0.32 0.11,0.48 l 0.13,0.67 c 0.05,0.27 0.09,0.55 0.13,0.83 0.04,0.25 0.07,0.5 0.09,0.75 0.02,0.21 0.05,0.42 0.07,0.63 0.01,0.11 0.02,0.21 0.02,0.32 0.02,0.17 0.03,0.34 0.04,0.5 0.04,0.55 0.06,1.11 0.06,1.67 0,1.51 -0.12,3 -0.37,4.44 -0.04,0.34 -0.1,0.62 -0.16,0.89 z"
   id="path199" />
</g>
<g
   id="g205"
   transform="translate(-62.8,-207.6)">
	<path
   class="st4"
   d="m 94.79,265.66 c 0.13,0.3 0.27,0.6 0.42,0.9 0.16,0.32 0.32,0.64 0.49,0.96 0.11,0.21 0.23,0.42 0.35,0.62 z"
   id="path203" />
</g>
<g
   id="g209"
   transform="translate(-62.8,-207.6)">
	<path
   class="st4"
   d="m 92.61,252.16 c -0.01,0.04 -0.01,0.07 -0.01,0.11 -0.03,0.26 -0.05,0.52 -0.06,0.78 -0.01,0.22 -0.02,0.44 -0.03,0.67 -0.01,0.22 -0.01,0.44 -0.02,0.67 l 0.07,-1.33 0.05,-0.91 v -0.05 c 0.01,0.01 0,0.04 0,0.06 z"
   id="path207" />
</g>
<g
   id="g245"
   transform="translate(-62.8,-207.6)">
	<g
   id="g213">
		<path
   class="st2"
   d="m 129.3,286.5 -1.38,1.87 c -0.57,0.08 -1.14,0.12 -1.73,0.12 -0.47,0 -0.95,-0.03 -1.44,-0.09 -3.93,-0.48 -8.36,-3.93 -8.85,-4.31 -1.23,-0.98 -2.09,-1.74 -2.79,-2.35 -1.61,-1.41 -2.2,-1.94 -4.21,-2.45 -1.41,-0.35 -2.94,-0.24 -4.58,0.35 l -0.95,-1.29 c 2.08,-0.83 4.06,-1.02 5.91,-0.55 2.36,0.6 3.2,1.33 4.85,2.78 0.68,0.6 1.54,1.36 2.73,2.3 1.66,1.32 5.23,3.64 8.08,4 1.52,0.19 2.99,0.02 4.36,-0.38 z"
   id="path211" />
	</g>
	<g
   id="g223">
		<g
   id="g217">
			<path
   class="st2"
   d="m 113.86,249.54 c -0.24,0.42 -0.48,0.88 -0.73,1.38 -1.75,-0.69 -3.51,-1.91 -4.98,-4.05 -2.56,-3.7 -3.23,-3.7 -3.76,-3.7 -0.54,0 -1.19,0 -3.76,3.7 -2.33,3.36 -5.35,4.47 -7.97,4.79 0.01,-0.04 0.01,-0.08 0.02,-0.12 0.02,-0.22 0.05,-0.45 0.09,-0.67 0.03,-0.26 0.07,-0.51 0.12,-0.76 0,-0.01 0.01,-0.02 0.01,-0.03 v -0.01 c 2.2,-0.34 4.59,-1.36 6.47,-4.07 2.58,-3.74 3.64,-4.37 5.02,-4.37 1.38,0 2.43,0.63 5.02,4.36 1.32,1.9 2.88,2.97 4.45,3.55 z"
   id="path215" />
		</g>
		<g
   id="g221">
			<path
   class="st2"
   d="m 145.98,251.65 c -2.61,-0.32 -5.63,-1.42 -7.96,-4.79 -2.56,-3.7 -3.22,-3.7 -3.76,-3.7 -0.53,0 -1.19,0 -3.75,3.7 -1.47,2.13 -3.24,3.35 -4.99,4.05 -0.25,-0.49 -0.49,-0.95 -0.73,-1.38 1.57,-0.58 3.14,-1.65 4.45,-3.55 2.59,-3.74 3.64,-4.37 5.02,-4.37 1.39,0 2.44,0.63 5.02,4.36 1.88,2.71 4.28,3.73 6.47,4.08 0.05,0.27 0.09,0.55 0.13,0.83 0.04,0.27 0.07,0.52 0.1,0.77 z"
   id="path219" />
		</g>
	</g>
	<g
   id="g231">
		<path
   class="st2"
   d="m 107.91,260.47 c -0.38,0.49 -0.78,0.93 -1.18,1.33 -2.08,-0.54 -4.11,-1.52 -6.78,-3.32 -3.51,-2.36 -5.83,-3.4 -7.47,-3.84 v -0.14 c 0,-0.04 0,-0.07 0.01,-0.11 l 0.07,-1.33 c 1.84,0.43 4.37,1.52 8.25,4.14 2.84,1.91 4.85,2.83 7.1,3.27 z"
   id="path225" />
		<path
   class="st2"
   d="m 92.57,253.06 -0.07,1.33 c 0.01,-0.22 0.01,-0.44 0.02,-0.67 0.01,-0.22 0.02,-0.44 0.03,-0.67 0,0 0.01,0 0.02,0.01 z"
   id="path227" />
		<path
   class="st2"
   d="m 145.46,260.88 c -0.06,0.24 -0.12,0.49 -0.18,0.73 -0.01,0.03 -0.01,0.06 -0.02,0.08 -0.06,0.24 -0.13,0.49 -0.21,0.72 h -12.48 c -0.51,-0.45 -1.01,-0.96 -1.5,-1.54 h 14.39 z"
   id="path229" />
	</g>
	<g
   id="g239">
		<g
   id="g237">
			<path
   class="st2"
   d="m 143.87,265.64 c -0.13,0.31 -0.27,0.62 -0.42,0.91 -0.16,0.32 -0.32,0.64 -0.49,0.96 -0.12,0.23 -0.26,0.46 -0.39,0.68 -0.24,0.01 -0.49,0.01 -0.75,0.01 -3.57,0 -8.44,-0.81 -12.69,-5.79 -0.4,-0.47 -0.8,-0.98 -1.19,-1.54 -0.93,-1.31 -1.82,-2.86 -2.64,-4.67 -0.87,-1.92 -1.61,-3.43 -2.23,-4.64 -0.29,-0.54 -0.55,-1.01 -0.78,-1.44 -1.8,-3.14 -2.48,-3.14 -2.95,-3.14 -0.47,0 -1.15,0 -2.94,3.14 -0.24,0.42 -0.5,0.9 -0.79,1.44 -0.63,1.2 -1.36,2.71 -2.23,4.63 -0.81,1.78 -1.68,3.3 -2.59,4.59 -0.37,0.52 -0.74,1.01 -1.13,1.46 -4.57,5.48 -9.91,6.03 -13.56,5.92 -0.01,-0.02 -0.02,-0.04 -0.03,-0.06 l -1.26,-2.48 c 0,-0.01 -0.01,-0.01 -0.01,-0.01 3.2,0.21 7.78,0.34 11.95,-3.85 0.4,-0.4 0.8,-0.84 1.18,-1.33 1.12,-1.38 2.19,-3.12 3.18,-5.29 0.76,-1.66 1.43,-3.07 2.04,-4.26 0.25,-0.49 0.49,-0.95 0.73,-1.38 2.31,-4.21 3.68,-5.03 5.46,-5.03 1.78,0 3.15,0.82 5.46,5.03 0.24,0.42 0.48,0.88 0.73,1.38 0.61,1.19 1.28,2.6 2.04,4.26 1.09,2.4 2.28,4.26 3.52,5.7 0.49,0.58 0.99,1.09 1.5,1.54 3.97,3.59 8.24,3.47 11.28,3.26 z"
   id="path233" />
			<path
   class="st2"
   d="m 96.05,268.14 c -0.12,-0.21 -0.24,-0.41 -0.35,-0.62 -0.17,-0.32 -0.34,-0.63 -0.49,-0.96 -0.14,-0.3 -0.29,-0.6 -0.42,-0.9 z"
   id="path235" />
		</g>
	</g>
	<g
   id="g243">
		<path
   class="st2"
   d="m 135.84,277.62 -0.93,1.26 c -6.52,-2.96 -14,-4.64 -21.95,-4.64 -4.04,0 -7.96,0.44 -11.69,1.25 l -1,-1.35 c 4.04,-0.94 8.29,-1.44 12.69,-1.44 8.29,0.01 16.09,1.79 22.88,4.92 z"
   id="path241" />
	</g>
</g>





<linearGradient
   id="SVGID_4_"
   gradientUnits="userSpaceOnUse"
   x1="328.25391"
   y1="263.2211"
   x2="286.2489"
   y2="221.216">
	<stop
   offset="0"
   style="stop-color:#E75F29"
   id="stop261" />
	<stop
   offset="0.0308"
   style="stop-color:#AF3B25"
   id="stop263" />
	<stop
   offset="1"
   style="stop-color:#E75F29"
   id="stop265" />
</linearGradient>


























</svg>
