<?xml version="1.0" encoding="UTF-8" standalone="no"?>
<!DOCTYPE svg PUBLIC "-//W3C//DTD SVG 1.1//EN"
 "http://www.w3.org/Graphics/SVG/1.1/DTD/svg11.dtd">
<!-- Generated by graphviz version 2.49.3 (0)
 -->
<!-- Title: largeRelationshipsDiagram Pages: 1 -->
<svg width="549pt" height="820pt"
 viewBox="0.00 0.00 549.00 820.00" xmlns="http://www.w3.org/2000/svg" xmlns:xlink="http://www.w3.org/1999/xlink">
<g id="graph0" class="graph" transform="scale(1 1) rotate(0) translate(4 816)">
<title>largeRelationshipsDiagram</title>
<polygon fill="#ffffff" stroke="transparent" points="-4,4 -4,-816 545,-816 545,4 -4,4"/>
<text text-anchor="middle" x="73.5" y="-7.2" font-family="Helvetica,sans-Serif" font-size="11.00">Generated by SchemaSpy</text>
<!-- jobs -->
<g id="node1" class="node">
<title>jobs</title>
<g id="a_node1"><a xlink:href="../../tables/jobs.html" xlink:title="jobs" target="_top">
<polygon fill="#ffffff" stroke="transparent" points="418,-702 418,-808 510,-808 510,-702 418,-702"/>
<polygon fill="#f5f5f5" stroke="transparent" points="418,-786 418,-808 510,-808 510,-786 418,-786"/>
<polygon fill="none" stroke="black" points="418,-786 418,-808 510,-808 510,-786 418,-786"/>
<text text-anchor="start" x="423" y="-795.2" font-family="Helvetica,sans-Serif" font-weight="bold" font-size="11.00">jobs</text>
<text text-anchor="start" x="475" y="-794.2" font-family="Helvetica,sans-Serif" font-size="11.00">[table]</text>
<polygon fill="none" stroke="black" points="418,-764 418,-786 510,-786 510,-764 418,-764"/>
<image xlink:href="../../images/primaryKeys.png" width="11px" height="12px" preserveAspectRatio="xMinYMin meet" x="423" y="-781"/>
<text text-anchor="start" x="438" y="-772.2" font-family="Helvetica,sans-Serif" font-size="11.00">id</text>
<polygon fill="none" stroke="black" points="418,-742 418,-764 510,-764 510,-742 418,-742"/>
<image xlink:href="../../images/foreignKeys.png" width="11px" height="12px" preserveAspectRatio="xMinYMin meet" x="423" y="-759"/>
<text text-anchor="start" x="438" y="-750.2" font-family="Helvetica,sans-Serif" font-size="11.00">task_id</text>
<polygon fill="none" stroke="black" points="418,-720 418,-742 510,-742 510,-720 418,-720"/>
<text text-anchor="start" x="438" y="-728.2" font-family="Helvetica,sans-Serif" font-size="11.00">created_at</text>
<polygon fill="#ffffff" stroke="transparent" points="418,-702 418,-720 448,-720 448,-702 418,-702"/>
<polygon fill="none" stroke="black" points="418,-702 418,-720 448,-720 448,-702 418,-702"/>
<text text-anchor="start" x="421" y="-708.2" font-family="Helvetica,sans-Serif" font-size="11.00">&lt; 1</text>
<polygon fill="#ffffff" stroke="transparent" points="448,-702 448,-720 492,-720 492,-702 448,-702"/>
<polygon fill="none" stroke="black" points="448,-702 448,-720 492,-720 492,-702 448,-702"/>
<text text-anchor="start" x="455" y="-708.2" font-family="Helvetica,sans-Serif" font-size="11.00">0 rows</text>
<polygon fill="#ffffff" stroke="transparent" points="492,-702 492,-720 510,-720 510,-702 492,-702"/>
<polygon fill="none" stroke="black" points="492,-702 492,-720 510,-720 510,-702 492,-702"/>
<text text-anchor="start" x="500" y="-708.2" font-family="Helvetica,sans-Serif" font-size="11.00"> &#160;</text>
</a>
</g>
</g>
<!-- tasks -->
<g id="node3" class="node">
<title>tasks</title>
<g id="a_node3"><a xlink:href="../../tables/tasks.html" xlink:title="tasks" target="_top">
<polygon fill="#ffffff" stroke="transparent" points="239,-386 239,-668 346,-668 346,-386 239,-386"/>
<polygon fill="#f5f5f5" stroke="transparent" points="239.5,-646 239.5,-668 346.5,-668 346.5,-646 239.5,-646"/>
<polygon fill="none" stroke="black" points="239.5,-646 239.5,-668 346.5,-668 346.5,-646 239.5,-646"/>
<text text-anchor="start" x="244.5" y="-655.2" font-family="Helvetica,sans-Serif" font-weight="bold" font-size="11.00">tasks</text>
<text text-anchor="start" x="311.5" y="-654.2" font-family="Helvetica,sans-Serif" font-size="11.00">[table]</text>
<polygon fill="none" stroke="black" points="239.5,-624 239.5,-646 346.5,-646 346.5,-624 239.5,-624"/>
<image xlink:href="../../images/primaryKeys.png" width="11px" height="12px" preserveAspectRatio="xMinYMin meet" x="244.5" y="-641"/>
<text text-anchor="start" x="259.5" y="-632.2" font-family="Helvetica,sans-Serif" font-size="11.00">id</text>
<polygon fill="none" stroke="black" points="239.5,-602 239.5,-624 346.5,-624 346.5,-602 239.5,-602"/>
<text text-anchor="start" x="259.5" y="-610.2" font-family="Helvetica,sans-Serif" font-size="11.00">name</text>
<polygon fill="none" stroke="black" points="239.5,-580 239.5,-602 346.5,-602 346.5,-580 239.5,-580"/>
<text text-anchor="start" x="259.5" y="-588.2" font-family="Helvetica,sans-Serif" font-size="11.00">type</text>
<polygon fill="#ffffff" stroke="transparent" points="239.5,-558 239.5,-580 346.5,-580 346.5,-558 239.5,-558"/>
<polygon fill="none" stroke="black" points="239.5,-558 239.5,-580 346.5,-580 346.5,-558 239.5,-558"/>
<image xlink:href="../../images/foreignKeys.png" width="11px" height="12px" preserveAspectRatio="xMinYMin meet" x="244.5" y="-575"/>
<text text-anchor="start" x="259.5" y="-566.2" font-family="Helvetica,sans-Serif" font-size="11.00">user_id</text>
<polygon fill="none" stroke="black" points="239.5,-536 239.5,-558 346.5,-558 346.5,-536 239.5,-536"/>
<text text-anchor="start" x="259.5" y="-544.2" font-family="Helvetica,sans-Serif" font-size="11.00">finished</text>
<polygon fill="none" stroke="black" points="239.5,-514 239.5,-536 346.5,-536 346.5,-514 239.5,-514"/>
<text text-anchor="start" x="259.5" y="-522.2" font-family="Helvetica,sans-Serif" font-size="11.00">failed</text>
<polygon fill="none" stroke="black" points="239.5,-492 239.5,-514 346.5,-514 346.5,-492 239.5,-492"/>
<text text-anchor="start" x="259.5" y="-500.2" font-family="Helvetica,sans-Serif" font-size="11.00">created_at</text>
<polygon fill="none" stroke="black" points="239.5,-470 239.5,-492 346.5,-492 346.5,-470 239.5,-470"/>
<text text-anchor="start" x="259.5" y="-478.2" font-family="Helvetica,sans-Serif" font-size="11.00">updated_at</text>
<polygon fill="none" stroke="black" points="239.5,-448 239.5,-470 346.5,-470 346.5,-448 239.5,-448"/>
<text text-anchor="start" x="259.5" y="-456.2" font-family="Helvetica,sans-Serif" font-size="11.00">finished_at</text>
<polygon fill="none" stroke="black" points="239.5,-426 239.5,-448 346.5,-448 346.5,-426 239.5,-426"/>
<text text-anchor="start" x="259.5" y="-434.2" font-family="Helvetica,sans-Serif" font-size="11.00">job_message</text>
<polygon fill="none" stroke="black" points="239.5,-404 239.5,-426 346.5,-426 346.5,-404 239.5,-404"/>
<text text-anchor="start" x="259.5" y="-412.2" font-family="Helvetica,sans-Serif" font-size="11.00">job_params</text>
<polygon fill="#ffffff" stroke="transparent" points="239.5,-386 239.5,-404 272.5,-404 272.5,-386 239.5,-386"/>
<polygon fill="none" stroke="black" points="239.5,-386 239.5,-404 272.5,-404 272.5,-386 239.5,-386"/>
<text text-anchor="start" x="242.5" y="-392.2" font-family="Helvetica,sans-Serif" font-size="11.00">&lt; 1</text>
<polygon fill="#ffffff" stroke="transparent" points="272.5,-386 272.5,-404 318.5,-404 318.5,-386 272.5,-386"/>
<polygon fill="none" stroke="black" points="272.5,-386 272.5,-404 318.5,-404 318.5,-386 272.5,-386"/>
<text text-anchor="start" x="281.5" y="-392.2" font-family="Helvetica,sans-Serif" font-size="11.00">0 rows</text>
<polygon fill="#ffffff" stroke="transparent" points="318.5,-386 318.5,-404 346.5,-404 346.5,-386 318.5,-386"/>
<polygon fill="none" stroke="black" points="318.5,-386 318.5,-404 346.5,-404 346.5,-386 318.5,-386"/>
<text text-anchor="start" x="327.5" y="-392.2" font-family="Helvetica,sans-Serif" font-size="11.00">2 &gt;</text>
</a>
</g>
</g>
<!-- jobs&#45;&gt;tasks -->
<g id="edge1" class="edge">
<title>jobs:w&#45;&gt;tasks:e</title>
<path fill="none" stroke="black" d="M402.68,-750.08C364.93,-731.91 402.66,-635 347.5,-635"/>
<polygon fill="black" stroke="black" points="409.16,-751.4 416.28,-756.53 413.08,-752.2 417,-753 417,-753 417,-753 413.08,-752.2 417.72,-749.47 409.16,-751.4 409.16,-751.4"/>
<ellipse fill="none" stroke="black" cx="406.03" cy="-750.76" rx="3.2" ry="3.2"/>
</g>
<!-- libraries -->
<g id="node2" class="node">
<title>libraries</title>
<g id="a_node2"><a xlink:href="../../tables/libraries.html" xlink:title="libraries" target="_top">
<polygon fill="#ffffff" stroke="transparent" points="249,-237 249,-365 336,-365 336,-237 249,-237"/>
<polygon fill="#f5f5f5" stroke="transparent" points="249.5,-343 249.5,-365 336.5,-365 336.5,-343 249.5,-343"/>
<polygon fill="none" stroke="black" points="249.5,-343 249.5,-365 336.5,-365 336.5,-343 249.5,-343"/>
<text text-anchor="start" x="254.5" y="-352.2" font-family="Helvetica,sans-Serif" font-weight="bold" font-size="11.00">libraries</text>
<text text-anchor="start" x="301.5" y="-351.2" font-family="Helvetica,sans-Serif" font-size="11.00">[table]</text>
<polygon fill="none" stroke="black" points="249.5,-321 249.5,-343 336.5,-343 336.5,-321 249.5,-321"/>
<image xlink:href="../../images/primaryKeys.png" width="11px" height="12px" preserveAspectRatio="xMinYMin meet" x="254.5" y="-338"/>
<text text-anchor="start" x="274.5" y="-329.2" font-family="Helvetica,sans-Serif" font-size="11.00">id</text>
<polygon fill="none" stroke="black" points="249.5,-299 249.5,-321 336.5,-321 336.5,-299 249.5,-299"/>
<text text-anchor="start" x="274.5" y="-307.2" font-family="Helvetica,sans-Serif" font-size="11.00">name</text>
<polygon fill="none" stroke="black" points="249.5,-277 249.5,-299 336.5,-299 336.5,-277 249.5,-277"/>
<text text-anchor="start" x="274.5" y="-285.2" font-family="Helvetica,sans-Serif" font-size="11.00">url</text>
<polygon fill="#ffffff" stroke="transparent" points="249.5,-255 249.5,-277 336.5,-277 336.5,-255 249.5,-255"/>
<polygon fill="none" stroke="black" points="249.5,-255 249.5,-277 336.5,-277 336.5,-255 249.5,-255"/>
<image xlink:href="../../images/foreignKeys.png" width="11px" height="12px" preserveAspectRatio="xMinYMin meet" x="254.5" y="-272"/>
<text text-anchor="start" x="274.5" y="-263.2" font-family="Helvetica,sans-Serif" font-size="11.00">user_id</text>
<polygon fill="#ffffff" stroke="transparent" points="249.5,-237 249.5,-255 277.5,-255 277.5,-237 249.5,-237"/>
<polygon fill="none" stroke="black" points="249.5,-237 249.5,-255 277.5,-255 277.5,-237 249.5,-237"/>
<text text-anchor="start" x="252.5" y="-243.2" font-family="Helvetica,sans-Serif" font-size="11.00">&lt; 1</text>
<polygon fill="#ffffff" stroke="transparent" points="277.5,-237 277.5,-255 320.5,-255 320.5,-237 277.5,-237"/>
<polygon fill="none" stroke="black" points="277.5,-237 277.5,-255 320.5,-255 320.5,-237 277.5,-237"/>
<text text-anchor="start" x="283.5" y="-243.2" font-family="Helvetica,sans-Serif" font-size="11.00">0 rows</text>
<polygon fill="#ffffff" stroke="transparent" points="320.5,-237 320.5,-255 336.5,-255 336.5,-237 320.5,-237"/>
<polygon fill="none" stroke="black" points="320.5,-237 320.5,-255 336.5,-255 336.5,-237 320.5,-237"/>
<text text-anchor="start" x="326.5" y="-243.2" font-family="Helvetica,sans-Serif" font-size="11.00"> &#160;</text>
</a>
</g>
</g>
<!-- users -->
<g id="node5" class="node">
<title>users</title>
<g id="a_node5"><a xlink:href="../../tables/users.html" xlink:title="users" target="_top">
<polygon fill="#ffffff" stroke="transparent" points="8,-37 8,-451 190,-451 190,-37 8,-37"/>
<polygon fill="#f5f5f5" stroke="transparent" points="8,-429 8,-451 190,-451 190,-429 8,-429"/>
<polygon fill="none" stroke="black" points="8,-429 8,-451 190,-451 190,-429 8,-429"/>
<text text-anchor="start" x="13" y="-438.2" font-family="Helvetica,sans-Serif" font-weight="bold" font-size="11.00">users</text>
<text text-anchor="start" x="155" y="-437.2" font-family="Helvetica,sans-Serif" font-size="11.00">[table]</text>
<polygon fill="none" stroke="black" points="8,-407 8,-429 190,-429 190,-407 8,-407"/>
<image xlink:href="../../images/primaryKeys.png" width="11px" height="12px" preserveAspectRatio="xMinYMin meet" x="13" y="-424"/>
<text text-anchor="start" x="28" y="-415.2" font-family="Helvetica,sans-Serif" font-size="11.00">id</text>
<polygon fill="#ffffff" stroke="transparent" points="8,-385 8,-407 190,-407 190,-385 8,-385"/>
<polygon fill="none" stroke="black" points="8,-385 8,-407 190,-407 190,-385 8,-385"/>
<text text-anchor="start" x="28" y="-393.2" font-family="Helvetica,sans-Serif" font-size="11.00">email</text>
<polygon fill="none" stroke="black" points="8,-363 8,-385 190,-385 190,-363 8,-363"/>
<text text-anchor="start" x="28" y="-371.2" font-family="Helvetica,sans-Serif" font-size="11.00">name</text>
<polygon fill="none" stroke="black" points="8,-341 8,-363 190,-363 190,-341 8,-341"/>
<text text-anchor="start" x="28" y="-349.2" font-family="Helvetica,sans-Serif" font-size="11.00">language</text>
<polygon fill="none" stroke="black" points="8,-319 8,-341 190,-341 190,-319 8,-319"/>
<text text-anchor="start" x="28" y="-327.2" font-family="Helvetica,sans-Serif" font-size="11.00">timezone</text>
<polygon fill="none" stroke="black" points="8,-297 8,-319 190,-319 190,-297 8,-297"/>
<text text-anchor="start" x="28" y="-305.2" font-family="Helvetica,sans-Serif" font-size="11.00">workflow_active</text>
<polygon fill="none" stroke="black" points="8,-275 8,-297 190,-297 190,-275 8,-275"/>
<text text-anchor="start" x="28" y="-283.2" font-family="Helvetica,sans-Serif" font-size="11.00">workflow_class</text>
<polygon fill="none" stroke="black" points="8,-253 8,-275 190,-275 190,-253 8,-253"/>
<text text-anchor="start" x="28" y="-261.2" font-family="Helvetica,sans-Serif" font-size="11.00">workflow_datasets</text>
<polygon fill="none" stroke="black" points="8,-231 8,-253 190,-253 190,-231 8,-231"/>
<text text-anchor="start" x="28" y="-239.2" font-family="Helvetica,sans-Serif" font-size="11.00">export_requested_at</text>
<polygon fill="none" stroke="black" points="8,-209 8,-231 190,-231 190,-209 8,-209"/>
<text text-anchor="start" x="28" y="-217.2" font-family="Helvetica,sans-Serif" font-size="11.00">export_filename</text>
<polygon fill="none" stroke="black" points="8,-187 8,-209 190,-209 190,-187 8,-187"/>
<text text-anchor="start" x="28" y="-195.2" font-family="Helvetica,sans-Serif" font-size="11.00">export_content_type</text>
<polygon fill="none" stroke="black" points="8,-165 8,-187 190,-187 190,-165 8,-165"/>
<text text-anchor="start" x="28" y="-173.2" font-family="Helvetica,sans-Serif" font-size="11.00">created_at</text>
<polygon fill="none" stroke="black" points="8,-143 8,-165 190,-165 190,-143 8,-143"/>
<text text-anchor="start" x="28" y="-151.2" font-family="Helvetica,sans-Serif" font-size="11.00">updated_at</text>
<polygon fill="none" stroke="black" points="8,-121 8,-143 190,-143 190,-121 8,-121"/>
<text text-anchor="start" x="28" y="-129.2" font-family="Helvetica,sans-Serif" font-size="11.00">encrypted_password</text>
<polygon fill="#ffffff" stroke="transparent" points="8,-99 8,-121 190,-121 190,-99 8,-99"/>
<polygon fill="none" stroke="black" points="8,-99 8,-121 190,-121 190,-99 8,-99"/>
<text text-anchor="start" x="28" y="-107.2" font-family="Helvetica,sans-Serif" font-size="11.00">reset_password_token</text>
<polygon fill="none" stroke="black" points="8,-77 8,-99 190,-99 190,-77 8,-77"/>
<text text-anchor="start" x="28" y="-85.2" font-family="Helvetica,sans-Serif" font-size="11.00">reset_password_sent_at</text>
<polygon fill="none" stroke="black" points="8,-55 8,-77 190,-77 190,-55 8,-55"/>
<text text-anchor="start" x="28" y="-63.2" font-family="Helvetica,sans-Serif" font-size="11.00">remember_created_at</text>
<polygon fill="#ffffff" stroke="transparent" points="8,-37 8,-55 77,-55 77,-37 8,-37"/>
<polygon fill="none" stroke="black" points="8,-37 8,-55 77,-55 77,-37 8,-37"/>
<text text-anchor="start" x="11" y="-43.2" font-family="Helvetica,sans-Serif" font-size="11.00"> &#160;</text>
<polygon fill="#ffffff" stroke="transparent" points="77,-37 77,-55 139,-55 139,-37 77,-37"/>
<polygon fill="none" stroke="black" points="77,-37 77,-55 139,-55 139,-37 77,-37"/>
<text text-anchor="start" x="108" y="-43.2" font-family="Helvetica,sans-Serif" font-size="11.00">1 row</text>
<polygon fill="#ffffff" stroke="transparent" points="139,-37 139,-55 190,-55 190,-37 139,-37"/>
<polygon fill="none" stroke="black" points="139,-37 139,-55 190,-55 190,-37 139,-37"/>
<text text-anchor="start" x="171" y="-43.2" font-family="Helvetica,sans-Serif" font-size="11.00">2 &gt;</text>
</a>
</g>
</g>
<!-- libraries&#45;&gt;users -->
<g id="edge2" class="edge">
<title>libraries:w&#45;&gt;users:e</title>
<path fill="none" stroke="black" d="M234.33,-268.64C188.89,-288.82 257.58,-418 191,-418"/>
<polygon fill="black" stroke="black" points="240.64,-267.46 249.16,-269.54 244.57,-266.73 248.5,-266 248.5,-266 248.5,-266 244.57,-266.73 247.84,-262.46 240.64,-267.46 240.64,-267.46"/>
<ellipse fill="none" stroke="black" cx="237.49" cy="-268.05" rx="3.2" ry="3.2"/>
</g>
<!-- tasks&#45;&gt;users -->
<g id="edge3" class="edge">
<title>tasks:w&#45;&gt;users:e</title>
<path fill="none" stroke="black" d="M224.31,-566.12C182.34,-545.24 255.58,-418 191,-418"/>
<polygon fill="black" stroke="black" points="230.66,-567.41 237.78,-572.53 234.58,-568.2 238.5,-569 238.5,-569 238.5,-569 234.58,-568.2 239.22,-565.47 230.66,-567.41 230.66,-567.41"/>
<ellipse fill="none" stroke="black" cx="227.52" cy="-566.77" rx="3.2" ry="3.2"/>
</g>
<!-- uploads -->
<g id="node4" class="node">
<title>uploads</title>
<g id="a_node4"><a xlink:href="../../tables/uploads.html" xlink:title="uploads" target="_top">
<polygon fill="#ffffff" stroke="transparent" points="395,-487 395,-681 533,-681 533,-487 395,-487"/>
<polygon fill="#f5f5f5" stroke="transparent" points="395,-659 395,-681 533,-681 533,-659 395,-659"/>
<polygon fill="none" stroke="black" points="395,-659 395,-681 533,-681 533,-659 395,-659"/>
<text text-anchor="start" x="400" y="-668.2" font-family="Helvetica,sans-Serif" font-weight="bold" font-size="11.00">uploads</text>
<text text-anchor="start" x="498" y="-667.2" font-family="Helvetica,sans-Serif" font-size="11.00">[table]</text>
<polygon fill="none" stroke="black" points="395,-637 395,-659 533,-659 533,-637 395,-637"/>
<image xlink:href="../../images/primaryKeys.png" width="11px" height="12px" preserveAspectRatio="xMinYMin meet" x="400" y="-654"/>
<text text-anchor="start" x="415" y="-645.2" font-family="Helvetica,sans-Serif" font-size="11.00">id</text>
<polygon fill="none" stroke="black" points="395,-615 395,-637 533,-637 533,-615 395,-615"/>
<text text-anchor="start" x="415" y="-623.2" font-family="Helvetica,sans-Serif" font-size="11.00">filename</text>
<polygon fill="none" stroke="black" points="395,-593 395,-615 533,-615 533,-593 395,-593"/>
<text text-anchor="start" x="415" y="-601.2" font-family="Helvetica,sans-Serif" font-size="11.00">content_type</text>
<polygon fill="none" stroke="black" points="395,-571 395,-593 533,-593 533,-571 395,-571"/>
<text text-anchor="start" x="415" y="-579.2" font-family="Helvetica,sans-Serif" font-size="11.00">description</text>
<polygon fill="none" stroke="black" points="395,-549 395,-571 533,-571 533,-549 395,-549"/>
<text text-anchor="start" x="415" y="-557.2" font-family="Helvetica,sans-Serif" font-size="11.00">short_description</text>
<polygon fill="none" stroke="black" points="395,-527 395,-549 533,-549 533,-527 395,-527"/>
<text text-anchor="start" x="415" y="-535.2" font-family="Helvetica,sans-Serif" font-size="11.00">downloadable</text>
<polygon fill="none" stroke="black" points="395,-505 395,-527 533,-527 533,-505 395,-505"/>
<image xlink:href="../../images/foreignKeys.png" width="11px" height="12px" preserveAspectRatio="xMinYMin meet" x="400" y="-522"/>
<text text-anchor="start" x="415" y="-513.2" font-family="Helvetica,sans-Serif" font-size="11.00">task_id</text>
<polygon fill="#ffffff" stroke="transparent" points="395,-487 395,-505 448,-505 448,-487 395,-487"/>
<polygon fill="none" stroke="black" points="395,-487 395,-505 448,-505 448,-487 395,-487"/>
<text text-anchor="start" x="398" y="-493.2" font-family="Helvetica,sans-Serif" font-size="11.00">&lt; 1</text>
<polygon fill="#ffffff" stroke="transparent" points="448,-487 448,-505 504,-505 504,-487 448,-487"/>
<polygon fill="none" stroke="black" points="448,-487 448,-505 504,-505 504,-487 448,-487"/>
<text text-anchor="start" x="467" y="-493.2" font-family="Helvetica,sans-Serif" font-size="11.00">0 rows</text>
<polygon fill="#ffffff" stroke="transparent" points="504,-487 504,-505 533,-505 533,-487 504,-487"/>
<polygon fill="none" stroke="black" points="504,-487 504,-505 533,-505 533,-487 504,-487"/>
<text text-anchor="start" x="523" y="-493.2" font-family="Helvetica,sans-Serif" font-size="11.00"> &#160;</text>
</a>
</g>
</g>
<!-- uploads&#45;&gt;tasks -->
<g id="edge4" class="edge">
<title>uploads:w&#45;&gt;tasks:e</title>
<path fill="none" stroke="black" d="M379.88,-519.69C349.99,-539.78 398.29,-635 347.5,-635"/>
<polygon fill="black" stroke="black" points="386.26,-518.02 394.91,-519.48 390.13,-517.01 394,-516 394,-516 394,-516 390.13,-517.01 393.09,-512.52 386.26,-518.02 386.26,-518.02"/>
<ellipse fill="none" stroke="black" cx="383.16" cy="-518.83" rx="3.2" ry="3.2"/>
</g>
</g>
</svg>
